{
    "apps": [
        {
            "name": "website",
            "script": "index.js",
            "instances": 0,
            "exec_mode": "cluster",
            "env": {
                "DEBUG_COLORS": "0",
                "DEBUG": "app*"
            }
        }
    ]
}